{
    "post":[
        "https://nasyourte.gitlab.io/exokata/blog/DATA/157783362.json",
        "https://nasyourte.gitlab.io/exokata/blog/DATA/1614781519.json",
        "https://nasyourte.gitlab.io/exokata/blog/DATA/1614782427.json"
    ]
}
